{
  "development": {
    "username": "root",
    "password": "password",
    "database": "focus",
    "host": "127.0.0.1",
    "dialect": "mysql",
    "pool": {
      "max": 5,
      "min": 0,
      "idle": 10000
    },
    "define": {
      "timestamps": true,
      "paranoid": true,
      "freezeTableName": true
    }
  },
  "test": {
    "username": "root",
    "password": "password",
    "database": "focus",
    "host": "127.0.0.1",
    "dialect": "mysql"
  },
  "production": {
    "username": "root",
    "password": "password",
    "database": "focus",
    "host": "127.0.0.1",
    "dialect": "mysql",
    "pool": {
      "max": 5,
      "min": 0,
      "idle": 10000
    },
    "define": {
      "timestamps": true,
      "paranoid": true,
      "freezeTableName": true
    }
  }
}